{
  "project_info": {
    "project_number": "296695600571",
    "firebase_url": "https://e-partisipation.firebaseio.com",
    "project_id": "e-partisipation",
    "storage_bucket": "e-partisipation.appspot.com"
  },
  "client": [
    {
      "client_info": {
        "mobilesdk_app_id": "1:296695600571:android:0e5a9c023df86117",
        "android_client_info": {
          "package_name": "com.dorizo.sonyachat.android"
        }
      },
      "oauth_client": [
        {
          "client_id": "296695600571-28e5la13smc2g0rgavrji41u873e84hj.apps.googleusercontent.com",
          "client_type": 1,
          "android_info": {
            "package_name": "com.dorizo.sonyachat.android",
            "certificate_hash": "0d0f8e79ed443336a3e2c609e1b9f038e979d43c"
          }
        },
        {
          "client_id": "296695600571-rrpkvc090c422qjmgjo4orugu6nju0cm.apps.googleusercontent.com",
          "client_type": 3
        }
      ],
      "api_key": [
        {
          "current_key": "AIzaSyC7TXz_rZwT007i4NIMyiKjeXmymZGJxik"
        }
      ],
      "services": {
        "analytics_service": {
          "status": 1
        },
        "appinvite_service": {
          "status": 2,
          "other_platform_oauth_client": [
            {
              "client_id": "296695600571-rrpkvc090c422qjmgjo4orugu6nju0cm.apps.googleusercontent.com",
              "client_type": 3
            }
          ]
        },
        "ads_service": {
          "status": 2
        }
      }
    },
    {
      "client_info": {
        "mobilesdk_app_id": "1:296695600571:android:8a4185b71ce1af70",
        "android_client_info": {
          "package_name": "com.soalonline.chatsonya"
        }
      },
      "oauth_client": [
        {
          "client_id": "296695600571-tr2j0fh0hd0aq4dckq05fc1unhpsm89i.apps.googleusercontent.com",
          "client_type": 1,
          "android_info": {
            "package_name": "com.soalonline.chatsonya",
            "certificate_hash": "0d0f8e79ed443336a3e2c609e1b9f038e979d43c"
          }
        },
        {
          "client_id": "296695600571-rrpkvc090c422qjmgjo4orugu6nju0cm.apps.googleusercontent.com",
          "client_type": 3
        }
      ],
      "api_key": [
        {
          "current_key": "AIzaSyC7TXz_rZwT007i4NIMyiKjeXmymZGJxik"
        }
      ],
      "services": {
        "analytics_service": {
          "status": 1
        },
        "appinvite_service": {
          "status": 2,
          "other_platform_oauth_client": [
            {
              "client_id": "296695600571-rrpkvc090c422qjmgjo4orugu6nju0cm.apps.googleusercontent.com",
              "client_type": 3
            }
          ]
        },
        "ads_service": {
          "status": 2
        }
      }
    }
  ],
  "configuration_version": "1"
}